2.1.5
2.1.6
2.2.0
2.3.0
2.3.1
2.4.0
2.5.0
2.6.0
2.7.0
2.8.0
2.9.0
2.10.0
2.11.0
2.12.0
2.13.0
2.13.1
2.14.0
2.15.0
2.16.0
2.17.0
2.18.5
2.18.6
2.19.0
2.19.1
2.19.2
2.19.3
2.19.4
2.19.5
2.19.6
2.19.7
2.19.8
2.20.0
2.20.1
2.21.0
2.21.1
2.21.2
2.22.0
2.22.1
2.23.0
2.24.0
2.24.1
2.25.0
2.25.1
2.26.0
2.27.0
2.27.1
2.28.0
2.28.1
2.28.2
2.29.0
2.30.0
2.31.0
2.32.0
2.33.0
2.34.0
2.34.1
2.34.2
2.34.3
2.34.4
2.34.5
2.34.6
2.34.7
2.34.8
2.34.9
2.35.0
